# MagicaVoxel @ ephtracy

# material
mtllib House1.mtl
usemtl palette

# normals
vn -1 0 0
vn 1 0 0
vn 0 0 1
vn 0 0 -1
vn 0 -1 0
vn 0 1 0

# texcoords
vt 0.00195313 0.5
vt 0.919922 0.5
vt 0.970703 0.5
vt 0.974609 0.5
vt 0.978516 0.5
vt 0.982422 0.5
vt 0.986328 0.5

# verts
v -24.5 18 11
v -24.5 18 -16
v -24.5 19 11
v -24.5 19 10
v -24.5 19 9
v -24.5 19 -14
v -24.5 19 -15
v -24.5 19 -16
v -24.5 20 10
v -24.5 20 9
v -24.5 20 8
v -24.5 20 -13
v -24.5 20 -14
v -24.5 20 -15
v -24.5 21 9
v -24.5 21 8
v -24.5 21 7
v -24.5 21 -12
v -24.5 21 -13
v -24.5 21 -14
v -24.5 22 8
v -24.5 22 7
v -24.5 22 6
v -24.5 22 -11
v -24.5 22 -12
v -24.5 22 -13
v -24.5 23 7
v -24.5 23 6
v -24.5 23 5
v -24.5 23 -10
v -24.5 23 -11
v -24.5 23 -12
v -24.5 24 6
v -24.5 24 5
v -24.5 24 4
v -24.5 24 -9
v -24.5 24 -10
v -24.5 24 -11
v -24.5 25 5
v -24.5 25 4
v -24.5 25 3
v -24.5 25 -8
v -24.5 25 -9
v -24.5 25 -10
v -24.5 26 4
v -24.5 26 3
v -24.5 26 2
v -24.5 26 -7
v -24.5 26 -8
v -24.5 26 -9
v -24.5 27 3
v -24.5 27 2
v -24.5 27 -7
v -24.5 27 -8
v -24.5 28 2
v -24.5 28 -7
v -23.5 7 5
v -23.5 7 -10
v -23.5 8 5
v -23.5 8 -10
v -23.5 19 9
v -23.5 19 -14
v -23.5 20 9
v -23.5 20 8
v -23.5 20 2
v -23.5 20 -7
v -23.5 20 -13
v -23.5 20 -14
v -23.5 21 8
v -23.5 21 7
v -23.5 21 3
v -23.5 21 2
v -23.5 21 -7
v -23.5 21 -8
v -23.5 21 -12
v -23.5 21 -13
v -23.5 22 7
v -23.5 22 6
v -23.5 22 -11
v -23.5 22 -12
v -23.5 23 6
v -23.5 23 5
v -23.5 23 -10
v -23.5 23 -11
v -23.5 24 5
v -23.5 24 4
v -23.5 24 3
v -23.5 24 2
v -23.5 24 -7
v -23.5 24 -8
v -23.5 24 -9
v -23.5 24 -10
v -23.5 25 4
v -23.5 25 3
v -23.5 25 2
v -23.5 25 -7
v -23.5 25 -8
v -23.5 25 -9
v -23.5 26 3
v -23.5 26 2
v -23.5 26 -7
v -23.5 26 -8
v -23.5 27 2
v -23.5 27 -7
v -22.5 8 5
v -22.5 8 4
v -22.5 8 -9
v -22.5 8 -10
v -22.5 9 5
v -22.5 9 4
v -22.5 9 -9
v -22.5 9 -10
v -21.5 0 7
v -21.5 0 -12
v -21.5 7 5
v -21.5 7 -10
v -21.5 8 4
v -21.5 8 -9
v -21.5 9 5
v -21.5 9 4
v -21.5 9 -9
v -21.5 9 -10
v -21.5 14 5
v -21.5 14 4
v -21.5 14 -9
v -21.5 14 -10
v -21.5 15 4
v -21.5 15 -9
v -21.5 18 7
v -21.5 18 -12
v -20.5 0 8
v -20.5 0 7
v -20.5 0 -12
v -20.5 0 -13
v -20.5 18 8
v -20.5 18 7
v -20.5 18 -12
v -20.5 18 -13
v -16.5 6 10
v -16.5 6 8
v -16.5 7 10
v -16.5 7 9
v -16.5 8 9
v -16.5 8 8
v -10.5 7 9
v -10.5 7 8
v -10.5 8 9
v -10.5 8 8
v -5.5 5 15
v -5.5 5 14
v -5.5 6 15
v -5.5 6 14
v -4.5 0 16
v -4.5 0 8
v -4.5 1 15
v -4.5 1 9
v -4.5 5 15
v -4.5 5 14
v -4.5 6 15
v -4.5 6 14
v -4.5 10 16
v -4.5 10 15
v -4.5 10 9
v -4.5 10 8
v -4.5 11 15
v -4.5 11 9
v 3.5 10 8
v 3.5 10 7
v 3.5 11 8
v 3.5 11 7
v 4.5 0 8
v 4.5 0 7
v 4.5 10 8
v 4.5 10 7
v 9.5 6 10
v 9.5 6 8
v 9.5 7 10
v 9.5 7 9
v 9.5 8 9
v 9.5 8 8
v 15.5 7 9
v 15.5 7 8
v 15.5 8 9
v 15.5 8 8
v -15.5 7 9
v -15.5 7 8
v -15.5 8 9
v -15.5 8 8
v -9.5 6 10
v -9.5 6 8
v -9.5 7 10
v -9.5 7 9
v -9.5 8 9
v -9.5 8 8
v -3.5 0 16
v -3.5 0 8
v -3.5 0 7
v -3.5 1 15
v -3.5 1 9
v -3.5 10 16
v -3.5 10 15
v -3.5 10 9
v -3.5 10 8
v -3.5 10 7
v -3.5 11 15
v -3.5 11 9
v -2.5 10 8
v -2.5 10 7
v -2.5 11 8
v -2.5 11 7
v 10.5 7 9
v 10.5 7 8
v 10.5 8 9
v 10.5 8 8
v 16.5 6 10
v 16.5 6 8
v 16.5 7 10
v 16.5 7 9
v 16.5 8 9
v 16.5 8 8
v 20.5 0 8
v 20.5 0 7
v 20.5 0 -12
v 20.5 0 -13
v 20.5 18 8
v 20.5 18 7
v 20.5 18 -12
v 20.5 18 -13
v 21.5 0 7
v 21.5 0 -12
v 21.5 6 5
v 21.5 6 -10
v 21.5 7 4
v 21.5 7 -9
v 21.5 8 5
v 21.5 8 4
v 21.5 8 -9
v 21.5 8 -10
v 21.5 14 5
v 21.5 14 4
v 21.5 14 -9
v 21.5 14 -10
v 21.5 15 4
v 21.5 15 -9
v 21.5 18 7
v 21.5 18 -12
v 22.5 7 5
v 22.5 7 4
v 22.5 7 -9
v 22.5 7 -10
v 22.5 8 5
v 22.5 8 4
v 22.5 8 -9
v 22.5 8 -10
v 23.5 6 5
v 23.5 6 -10
v 23.5 7 5
v 23.5 7 -10
v 23.5 19 9
v 23.5 19 -14
v 23.5 20 9
v 23.5 20 8
v 23.5 20 1
v 23.5 20 -6
v 23.5 20 -13
v 23.5 20 -14
v 23.5 21 8
v 23.5 21 7
v 23.5 21 2
v 23.5 21 1
v 23.5 21 -6
v 23.5 21 -7
v 23.5 21 -12
v 23.5 21 -13
v 23.5 22 7
v 23.5 22 6
v 23.5 22 -11
v 23.5 22 -12
v 23.5 23 6
v 23.5 23 5
v 23.5 23 -10
v 23.5 23 -11
v 23.5 24 5
v 23.5 24 4
v 23.5 24 2
v 23.5 24 1
v 23.5 24 -6
v 23.5 24 -7
v 23.5 24 -9
v 23.5 24 -10
v 23.5 25 4
v 23.5 25 3
v 23.5 25 1
v 23.5 25 -6
v 23.5 25 -8
v 23.5 25 -9
v 23.5 26 3
v 23.5 26 2
v 23.5 26 -7
v 23.5 26 -8
v 23.5 27 2
v 23.5 27 -7
v 24.5 18 11
v 24.5 18 -16
v 24.5 19 11
v 24.5 19 10
v 24.5 19 9
v 24.5 19 -14
v 24.5 19 -15
v 24.5 19 -16
v 24.5 20 10
v 24.5 20 9
v 24.5 20 8
v 24.5 20 -13
v 24.5 20 -14
v 24.5 20 -15
v 24.5 21 9
v 24.5 21 8
v 24.5 21 7
v 24.5 21 -12
v 24.5 21 -13
v 24.5 21 -14
v 24.5 22 8
v 24.5 22 7
v 24.5 22 6
v 24.5 22 -11
v 24.5 22 -12
v 24.5 22 -13
v 24.5 23 7
v 24.5 23 6
v 24.5 23 5
v 24.5 23 -10
v 24.5 23 -11
v 24.5 23 -12
v 24.5 24 6
v 24.5 24 5
v 24.5 24 4
v 24.5 24 -9
v 24.5 24 -10
v 24.5 24 -11
v 24.5 25 5
v 24.5 25 4
v 24.5 25 3
v 24.5 25 -8
v 24.5 25 -9
v 24.5 25 -10
v 24.5 26 4
v 24.5 26 3
v 24.5 26 2
v 24.5 26 -7
v 24.5 26 -8
v 24.5 26 -9
v 24.5 27 3
v 24.5 27 2
v 24.5 27 -7
v 24.5 27 -8
v 24.5 28 2
v 24.5 28 -7
v -4.5 0 16
v -4.5 10 16
v -3.5 0 16
v -3.5 10 16
v -5.5 5 15
v -5.5 6 15
v -4.5 5 15
v -4.5 6 15
v -4.5 10 15
v -4.5 11 15
v -3.5 10 15
v -3.5 11 15
v -24.5 18 11
v -24.5 19 11
v 24.5 18 11
v 24.5 19 11
v -24.5 19 10
v -24.5 20 10
v -16.5 6 10
v -16.5 7 10
v -9.5 6 10
v -9.5 7 10
v 9.5 6 10
v 9.5 7 10
v 16.5 6 10
v 16.5 7 10
v 24.5 19 10
v 24.5 20 10
v -24.5 20 9
v -24.5 21 9
v -16.5 7 9
v -16.5 8 9
v -15.5 7 9
v -15.5 8 9
v -10.5 7 9
v -10.5 8 9
v -9.5 7 9
v -9.5 8 9
v 9.5 7 9
v 9.5 8 9
v 10.5 7 9
v 10.5 8 9
v 15.5 7 9
v 15.5 8 9
v 16.5 7 9
v 16.5 8 9
v 24.5 20 9
v 24.5 21 9
v -24.5 21 8
v -24.5 22 8
v -20.5 0 8
v -20.5 18 8
v -19.5 2 8
v -19.5 17 8
v -16.5 6 8
v -16.5 8 8
v -16.5 13 8
v -15.5 7 8
v -15.5 8 8
v -15.5 13 8
v -15.5 14 8
v -10.5 7 8
v -10.5 8 8
v -10.5 13 8
v -10.5 14 8
v -9.5 6 8
v -9.5 8 8
v -9.5 13 8
v -5.5 2 8
v -5.5 11 8
v -4.5 0 8
v -4.5 10 8
v -4.5 11 8
v -4.5 12 8
v -3.5 10 8
v -2.5 10 8
v -2.5 11 8
v 3.5 10 8
v 3.5 11 8
v 4.5 0 8
v 4.5 10 8
v 5.5 11 8
v 5.5 12 8
v 6.5 2 8
v 6.5 11 8
v 9.5 6 8
v 9.5 8 8
v 9.5 13 8
v 10.5 7 8
v 10.5 8 8
v 10.5 13 8
v 10.5 14 8
v 15.5 7 8
v 15.5 8 8
v 15.5 13 8
v 15.5 14 8
v 16.5 6 8
v 16.5 8 8
v 16.5 13 8
v 19.5 2 8
v 19.5 17 8
v 20.5 0 8
v 20.5 18 8
v 24.5 21 8
v 24.5 22 8
v -24.5 22 7
v -24.5 23 7
v -21.5 0 7
v -21.5 18 7
v -20.5 0 7
v -20.5 18 7
v -3.5 0 7
v -3.5 10 7
v -2.5 10 7
v -2.5 11 7
v 3.5 10 7
v 3.5 11 7
v 4.5 0 7
v 4.5 10 7
v 20.5 0 7
v 20.5 18 7
v 21.5 0 7
v 21.5 18 7
v 24.5 22 7
v 24.5 23 7
v -24.5 23 6
v -24.5 24 6
v 24.5 23 6
v 24.5 24 6
v -24.5 24 5
v -24.5 25 5
v -23.5 7 5
v -23.5 8 5
v -22.5 8 5
v -22.5 9 5
v -21.5 7 5
v -21.5 9 5
v 21.5 6 5
v 21.5 8 5
v 22.5 7 5
v 22.5 8 5
v 23.5 6 5
v 23.5 7 5
v 24.5 24 5
v 24.5 25 5
v -24.5 25 4
v -24.5 26 4
v 24.5 25 4
v 24.5 26 4
v -24.5 26 3
v -24.5 27 3
v 24.5 26 3
v 24.5 27 3
v -24.5 27 2
v -24.5 28 2
v 24.5 27 2
v 24.5 28 2
v -24.5 26 -7
v -24.5 27 -7
v -23.5 26 -7
v -23.5 27 -7
v 23.5 26 -7
v 23.5 27 -7
v 24.5 26 -7
v 24.5 27 -7
v -24.5 25 -8
v -24.5 26 -8
v -23.5 25 -8
v -23.5 26 -8
v 23.5 25 -8
v 23.5 26 -8
v 24.5 25 -8
v 24.5 26 -8
v -24.5 24 -9
v -24.5 25 -9
v -23.5 24 -9
v -23.5 25 -9
v -22.5 8 -9
v -22.5 9 -9
v -21.5 8 -9
v -21.5 9 -9
v 21.5 7 -9
v 21.5 8 -9
v 22.5 7 -9
v 22.5 8 -9
v 23.5 24 -9
v 23.5 25 -9
v 24.5 24 -9
v 24.5 25 -9
v -24.5 23 -10
v -24.5 24 -10
v -23.5 23 -10
v -23.5 24 -10
v 23.5 23 -10
v 23.5 24 -10
v 24.5 23 -10
v 24.5 24 -10
v -24.5 22 -11
v -24.5 23 -11
v -23.5 22 -11
v -23.5 23 -11
v 23.5 22 -11
v 23.5 23 -11
v 24.5 22 -11
v 24.5 23 -11
v -24.5 21 -12
v -24.5 22 -12
v -23.5 21 -12
v -23.5 22 -12
v 23.5 21 -12
v 23.5 22 -12
v 24.5 21 -12
v 24.5 22 -12
v -24.5 20 -13
v -24.5 21 -13
v -23.5 20 -13
v -23.5 21 -13
v 23.5 20 -13
v 23.5 21 -13
v 24.5 20 -13
v 24.5 21 -13
v -24.5 19 -14
v -24.5 20 -14
v -23.5 19 -14
v -23.5 20 -14
v 23.5 19 -14
v 23.5 20 -14
v 24.5 19 -14
v 24.5 20 -14
v -5.5 5 14
v -5.5 6 14
v -4.5 5 14
v -4.5 6 14
v -24.5 19 9
v -24.5 20 9
v -23.5 19 9
v -23.5 20 9
v -4.5 10 9
v -4.5 11 9
v -3.5 10 9
v -3.5 11 9
v 23.5 19 9
v 23.5 20 9
v 24.5 19 9
v 24.5 20 9
v -24.5 20 8
v -24.5 21 8
v -23.5 20 8
v -23.5 21 8
v 23.5 20 8
v 23.5 21 8
v 24.5 20 8
v 24.5 21 8
v -24.5 21 7
v -24.5 22 7
v -23.5 21 7
v -23.5 22 7
v 23.5 21 7
v 23.5 22 7
v 24.5 21 7
v 24.5 22 7
v -24.5 22 6
v -24.5 23 6
v -23.5 22 6
v -23.5 23 6
v 23.5 22 6
v 23.5 23 6
v 24.5 22 6
v 24.5 23 6
v -24.5 23 5
v -24.5 24 5
v -23.5 23 5
v -23.5 24 5
v 23.5 23 5
v 23.5 24 5
v 24.5 23 5
v 24.5 24 5
v -24.5 24 4
v -24.5 25 4
v -23.5 24 4
v -23.5 25 4
v -22.5 8 4
v -22.5 9 4
v -21.5 8 4
v -21.5 9 4
v 21.5 7 4
v 21.5 8 4
v 22.5 7 4
v 22.5 8 4
v 23.5 24 4
v 23.5 25 4
v 24.5 24 4
v 24.5 25 4
v -24.5 25 3
v -24.5 26 3
v -23.5 25 3
v -23.5 26 3
v 23.5 25 3
v 23.5 26 3
v 24.5 25 3
v 24.5 26 3
v -24.5 26 2
v -24.5 27 2
v -23.5 26 2
v -23.5 27 2
v 23.5 26 2
v 23.5 27 2
v 24.5 26 2
v 24.5 27 2
v -24.5 27 -7
v -24.5 28 -7
v 24.5 27 -7
v 24.5 28 -7
v -24.5 26 -8
v -24.5 27 -8
v 24.5 26 -8
v 24.5 27 -8
v -24.5 25 -9
v -24.5 26 -9
v 24.5 25 -9
v 24.5 26 -9
v -24.5 24 -10
v -24.5 25 -10
v -23.5 7 -10
v -23.5 8 -10
v -22.5 8 -10
v -22.5 9 -10
v -21.5 7 -10
v -21.5 9 -10
v 21.5 6 -10
v 21.5 8 -10
v 22.5 7 -10
v 22.5 8 -10
v 23.5 6 -10
v 23.5 7 -10
v 24.5 24 -10
v 24.5 25 -10
v -24.5 23 -11
v -24.5 24 -11
v 24.5 23 -11
v 24.5 24 -11
v -24.5 22 -12
v -24.5 23 -12
v -21.5 0 -12
v -21.5 18 -12
v -20.5 0 -12
v -20.5 18 -12
v 20.5 0 -12
v 20.5 18 -12
v 21.5 0 -12
v 21.5 18 -12
v 24.5 22 -12
v 24.5 23 -12
v -24.5 21 -13
v -24.5 22 -13
v -20.5 0 -13
v -20.5 18 -13
v 20.5 0 -13
v 20.5 18 -13
v 24.5 21 -13
v 24.5 22 -13
v -24.5 20 -14
v -24.5 21 -14
v 24.5 20 -14
v 24.5 21 -14
v -24.5 19 -15
v -24.5 20 -15
v 24.5 19 -15
v 24.5 20 -15
v -24.5 18 -16
v -24.5 19 -16
v 24.5 18 -16
v 24.5 19 -16
v -4.5 0 16
v -3.5 0 16
v -20.5 0 8
v -4.5 0 8
v -3.5 0 8
v 4.5 0 8
v 20.5 0 8
v -21.5 0 7
v -20.5 0 7
v -3.5 0 7
v 4.5 0 7
v 20.5 0 7
v 21.5 0 7
v -21.5 0 -12
v -20.5 0 -12
v 20.5 0 -12
v 21.5 0 -12
v -20.5 0 -13
v 20.5 0 -13
v -5.5 5 15
v -4.5 5 15
v -5.5 5 14
v -4.5 5 14
v -16.5 6 10
v -9.5 6 10
v 9.5 6 10
v 16.5 6 10
v -16.5 6 8
v -9.5 6 8
v 9.5 6 8
v 16.5 6 8
v 21.5 6 5
v 23.5 6 5
v 21.5 6 -10
v 23.5 6 -10
v -23.5 7 5
v -21.5 7 5
v -23.5 7 -10
v -21.5 7 -10
v -3.5 10 8
v -2.5 10 8
v 3.5 10 8
v 4.5 10 8
v -3.5 10 7
v -2.5 10 7
v 3.5 10 7
v 4.5 10 7
v -2.5 11 8
v 3.5 11 8
v -2.5 11 7
v 3.5 11 7
v -24.5 18 11
v 24.5 18 11
v -20.5 18 8
v 20.5 18 8
v -21.5 18 7
v -20.5 18 7
v 20.5 18 7
v 21.5 18 7
v -21.5 18 -12
v -20.5 18 -12
v 20.5 18 -12
v 21.5 18 -12
v -20.5 18 -13
v 20.5 18 -13
v -24.5 18 -16
v 24.5 18 -16
v -24.5 20 9
v -23.5 20 9
v 23.5 20 9
v 24.5 20 9
v -24.5 20 8
v -23.5 20 8
v 23.5 20 8
v 24.5 20 8
v -24.5 20 -13
v -23.5 20 -13
v 23.5 20 -13
v 24.5 20 -13
v -24.5 20 -14
v -23.5 20 -14
v 23.5 20 -14
v 24.5 20 -14
v -24.5 21 8
v -23.5 21 8
v 23.5 21 8
v 24.5 21 8
v -24.5 21 7
v -23.5 21 7
v 23.5 21 7
v 24.5 21 7
v -24.5 21 -12
v -23.5 21 -12
v 23.5 21 -12
v 24.5 21 -12
v -24.5 21 -13
v -23.5 21 -13
v 23.5 21 -13
v 24.5 21 -13
v -24.5 22 7
v -23.5 22 7
v 23.5 22 7
v 24.5 22 7
v -24.5 22 6
v -23.5 22 6
v 23.5 22 6
v 24.5 22 6
v -24.5 22 -11
v -23.5 22 -11
v 23.5 22 -11
v 24.5 22 -11
v -24.5 22 -12
v -23.5 22 -12
v 23.5 22 -12
v 24.5 22 -12
v -24.5 23 6
v -23.5 23 6
v 23.5 23 6
v 24.5 23 6
v -24.5 23 5
v -23.5 23 5
v 23.5 23 5
v 24.5 23 5
v -24.5 23 -10
v -23.5 23 -10
v 23.5 23 -10
v 24.5 23 -10
v -24.5 23 -11
v -23.5 23 -11
v 23.5 23 -11
v 24.5 23 -11
v -24.5 24 5
v -23.5 24 5
v 23.5 24 5
v 24.5 24 5
v -24.5 24 4
v -23.5 24 4
v 23.5 24 4
v 24.5 24 4
v -24.5 24 -9
v -23.5 24 -9
v 23.5 24 -9
v 24.5 24 -9
v -24.5 24 -10
v -23.5 24 -10
v 23.5 24 -10
v 24.5 24 -10
v -24.5 25 4
v -23.5 25 4
v 23.5 25 4
v 24.5 25 4
v -24.5 25 3
v -23.5 25 3
v 23.5 25 3
v 24.5 25 3
v -24.5 25 -8
v -23.5 25 -8
v 23.5 25 -8
v 24.5 25 -8
v -24.5 25 -9
v -23.5 25 -9
v 23.5 25 -9
v 24.5 25 -9
v -24.5 26 3
v -23.5 26 3
v 23.5 26 3
v 24.5 26 3
v -24.5 26 2
v -23.5 26 2
v 23.5 26 2
v 24.5 26 2
v -24.5 26 -7
v -23.5 26 -7
v 23.5 26 -7
v 24.5 26 -7
v -24.5 26 -8
v -23.5 26 -8
v 23.5 26 -8
v 24.5 26 -8
v -24.5 27 2
v -23.5 27 2
v 23.5 27 2
v 24.5 27 2
v -24.5 27 -7
v -23.5 27 -7
v 23.5 27 -7
v 24.5 27 -7
v -5.5 6 15
v -4.5 6 15
v -5.5 6 14
v -4.5 6 14
v -16.5 7 10
v -9.5 7 10
v 9.5 7 10
v 16.5 7 10
v -16.5 7 9
v -15.5 7 9
v -10.5 7 9
v -9.5 7 9
v 9.5 7 9
v 10.5 7 9
v 15.5 7 9
v 16.5 7 9
v -15.5 7 8
v -10.5 7 8
v 10.5 7 8
v 15.5 7 8
v 22.5 7 5
v 23.5 7 5
v 21.5 7 4
v 22.5 7 4
v 21.5 7 -9
v 22.5 7 -9
v 22.5 7 -10
v 23.5 7 -10
v -16.5 8 9
v -15.5 8 9
v -10.5 8 9
v -9.5 8 9
v 9.5 8 9
v 10.5 8 9
v 15.5 8 9
v 16.5 8 9
v -16.5 8 8
v -15.5 8 8
v -10.5 8 8
v -9.5 8 8
v 9.5 8 8
v 10.5 8 8
v 15.5 8 8
v 16.5 8 8
v -23.5 8 5
v -22.5 8 5
v 21.5 8 5
v 22.5 8 5
v -22.5 8 4
v -21.5 8 4
v 21.5 8 4
v 22.5 8 4
v -22.5 8 -9
v -21.5 8 -9
v 21.5 8 -9
v 22.5 8 -9
v -23.5 8 -10
v -22.5 8 -10
v 21.5 8 -10
v 22.5 8 -10
v -22.5 9 5
v -21.5 9 5
v -22.5 9 4
v -21.5 9 4
v -22.5 9 -9
v -21.5 9 -9
v -22.5 9 -10
v -21.5 9 -10
v -4.5 10 16
v -3.5 10 16
v -4.5 10 15
v -3.5 10 15
v -4.5 10 9
v -3.5 10 9
v -4.5 10 8
v -3.5 10 8
v -4.5 11 15
v -3.5 11 15
v -4.5 11 9
v -3.5 11 9
v -24.5 19 11
v 24.5 19 11
v -24.5 19 10
v 24.5 19 10
v -24.5 19 9
v -23.5 19 9
v 23.5 19 9
v 24.5 19 9
v -24.5 19 -14
v -23.5 19 -14
v 23.5 19 -14
v 24.5 19 -14
v -24.5 19 -15
v 24.5 19 -15
v -24.5 19 -16
v 24.5 19 -16
v -24.5 20 10
v 24.5 20 10
v -24.5 20 9
v 24.5 20 9
v -24.5 20 -14
v 24.5 20 -14
v -24.5 20 -15
v 24.5 20 -15
v -24.5 21 9
v 24.5 21 9
v -24.5 21 8
v 24.5 21 8
v -24.5 21 -13
v 24.5 21 -13
v -24.5 21 -14
v 24.5 21 -14
v -24.5 22 8
v 24.5 22 8
v -24.5 22 7
v 24.5 22 7
v -24.5 22 -12
v 24.5 22 -12
v -24.5 22 -13
v 24.5 22 -13
v -24.5 23 7
v 24.5 23 7
v -24.5 23 6
v 24.5 23 6
v -24.5 23 -11
v 24.5 23 -11
v -24.5 23 -12
v 24.5 23 -12
v -24.5 24 6
v 24.5 24 6
v -24.5 24 5
v 24.5 24 5
v -24.5 24 -10
v 24.5 24 -10
v -24.5 24 -11
v 24.5 24 -11
v -24.5 25 5
v 24.5 25 5
v -24.5 25 4
v 24.5 25 4
v -24.5 25 -9
v 24.5 25 -9
v -24.5 25 -10
v 24.5 25 -10
v -24.5 26 4
v 24.5 26 4
v -24.5 26 3
v 24.5 26 3
v -24.5 26 -8
v 24.5 26 -8
v -24.5 26 -9
v 24.5 26 -9
v -24.5 27 3
v 24.5 27 3
v -24.5 27 2
v 24.5 27 2
v -24.5 27 -7
v 24.5 27 -7
v -24.5 27 -8
v 24.5 27 -8
v -24.5 28 2
v 24.5 28 2
v -24.5 28 -7
v 24.5 28 -7

# faces
f 3/3/1 2/3/1 1/3/1
f 4/3/1 2/3/1 3/3/1
f 5/3/1 2/3/1 4/3/1
f 6/3/1 2/3/1 5/3/1
f 7/3/1 2/3/1 6/3/1
f 8/3/1 2/3/1 7/3/1
f 9/3/1 5/3/1 4/3/1
f 10/3/1 5/3/1 9/3/1
f 13/3/1 7/3/1 6/3/1
f 14/3/1 7/3/1 13/3/1
f 15/3/1 11/3/1 10/3/1
f 16/3/1 11/3/1 15/3/1
f 19/3/1 13/3/1 12/3/1
f 20/3/1 13/3/1 19/3/1
f 21/3/1 17/3/1 16/3/1
f 22/3/1 17/3/1 21/3/1
f 25/3/1 19/3/1 18/3/1
f 26/3/1 19/3/1 25/3/1
f 27/3/1 23/3/1 22/3/1
f 28/3/1 23/3/1 27/3/1
f 31/3/1 25/3/1 24/3/1
f 32/3/1 25/3/1 31/3/1
f 33/3/1 29/3/1 28/3/1
f 34/3/1 29/3/1 33/3/1
f 37/3/1 31/3/1 30/3/1
f 38/3/1 31/3/1 37/3/1
f 39/3/1 35/3/1 34/3/1
f 40/3/1 35/3/1 39/3/1
f 43/3/1 37/3/1 36/3/1
f 44/3/1 37/3/1 43/3/1
f 45/3/1 41/3/1 40/3/1
f 46/3/1 41/3/1 45/3/1
f 49/3/1 43/3/1 42/3/1
f 50/3/1 43/3/1 49/3/1
f 51/3/1 47/3/1 46/3/1
f 52/3/1 47/3/1 51/3/1
f 53/3/1 49/3/1 48/3/1
f 54/3/1 49/3/1 53/3/1
f 55/3/1 53/3/1 52/3/1
f 56/3/1 53/3/1 55/3/1
f 59/3/1 58/3/1 57/3/1
f 60/3/1 58/3/1 59/3/1
f 63/3/1 62/3/1 61/3/1
f 64/3/1 62/3/1 63/3/1
f 65/3/1 62/3/1 64/3/1
f 66/3/1 62/3/1 65/3/1
f 67/3/1 62/3/1 66/3/1
f 68/3/1 62/3/1 67/3/1
f 69/3/1 65/3/1 64/3/1
f 70/3/1 65/3/1 69/3/1
f 71/3/1 65/3/1 70/3/1
f 72/2/1 66/2/1 65/2/1
f 72/3/1 65/3/1 71/3/1
f 73/3/1 67/3/1 66/3/1
f 73/2/1 66/2/1 72/2/1
f 74/3/1 67/3/1 73/3/1
f 75/3/1 67/3/1 74/3/1
f 76/3/1 67/3/1 75/3/1
f 77/3/1 71/3/1 70/3/1
f 78/3/1 71/3/1 77/3/1
f 79/3/1 75/3/1 74/3/1
f 80/3/1 75/3/1 79/3/1
f 81/3/1 71/3/1 78/3/1
f 82/3/1 71/3/1 81/3/1
f 83/3/1 79/3/1 74/3/1
f 84/3/1 79/3/1 83/3/1
f 85/3/1 71/3/1 82/3/1
f 86/3/1 71/3/1 85/3/1
f 87/2/1 72/2/1 71/2/1
f 87/3/1 71/3/1 86/3/1
f 87/2/1 73/2/1 72/2/1
f 87/2/1 74/2/1 73/2/1
f 88/2/1 74/2/1 87/2/1
f 89/2/1 74/2/1 88/2/1
f 90/3/1 83/3/1 74/3/1
f 90/2/1 74/2/1 89/2/1
f 91/3/1 83/3/1 90/3/1
f 92/3/1 83/3/1 91/3/1
f 93/3/1 87/3/1 86/3/1
f 93/3/1 88/3/1 87/3/1
f 94/3/1 88/3/1 93/3/1
f 95/2/1 89/2/1 88/2/1
f 95/3/1 88/3/1 94/3/1
f 96/3/1 91/3/1 90/3/1
f 96/2/1 89/2/1 95/2/1
f 96/3/1 90/3/1 89/3/1
f 97/3/1 91/3/1 96/3/1
f 98/3/1 91/3/1 97/3/1
f 99/3/1 95/3/1 94/3/1
f 99/3/1 97/3/1 96/3/1
f 99/3/1 96/3/1 95/3/1
f 100/3/1 97/3/1 99/3/1
f 101/3/1 97/3/1 100/3/1
f 102/3/1 97/3/1 101/3/1
f 103/3/1 101/3/1 100/3/1
f 104/3/1 101/3/1 103/3/1
f 109/3/1 106/3/1 105/3/1
f 110/3/1 106/3/1 109/3/1
f 111/3/1 108/3/1 107/3/1
f 112/3/1 108/3/1 111/3/1
f 115/4/1 114/4/1 113/4/1
f 116/4/1 114/4/1 115/4/1
f 119/4/1 115/4/1 113/4/1
f 120/2/1 118/2/1 117/2/1
f 121/2/1 118/2/1 120/2/1
f 122/4/1 114/4/1 116/4/1
f 123/4/1 119/4/1 113/4/1
f 123/2/1 122/2/1 121/2/1
f 123/2/1 121/2/1 120/2/1
f 123/2/1 120/2/1 119/2/1
f 124/2/1 122/2/1 123/2/1
f 125/2/1 122/2/1 124/2/1
f 126/4/1 114/4/1 122/4/1
f 126/2/1 122/2/1 125/2/1
f 127/2/1 125/2/1 124/2/1
f 127/4/1 124/4/1 123/4/1
f 128/4/1 126/4/1 125/4/1
f 128/2/1 125/2/1 127/2/1
f 129/4/1 123/4/1 113/4/1
f 129/4/1 127/4/1 123/4/1
f 129/4/1 128/4/1 127/4/1
f 130/4/1 114/4/1 126/4/1
f 130/4/1 128/4/1 129/4/1
f 130/4/1 126/4/1 128/4/1
f 135/4/1 132/4/1 131/4/1
f 136/4/1 132/4/1 135/4/1
f 137/4/1 134/4/1 133/4/1
f 138/4/1 134/4/1 137/4/1
f 141/3/1 140/3/1 139/3/1
f 142/3/1 140/3/1 141/3/1
f 143/3/1 140/3/1 142/3/1
f 144/3/1 140/3/1 143/3/1
f 147/3/1 146/3/1 145/3/1
f 148/3/1 146/3/1 147/3/1
f 151/5/1 150/5/1 149/5/1
f 152/5/1 150/5/1 151/5/1
f 155/3/1 154/3/1 153/3/1
f 156/3/1 154/3/1 155/3/1
f 157/3/1 155/3/1 153/3/1
f 157/7/1 156/7/1 155/7/1
f 158/7/1 156/7/1 157/7/1
f 159/3/1 157/3/1 153/3/1
f 160/7/1 156/7/1 158/7/1
f 161/3/1 159/3/1 153/3/1
f 162/7/1 160/7/1 159/7/1
f 162/3/1 159/3/1 161/3/1
f 163/3/1 154/3/1 156/3/1
f 163/7/1 160/7/1 162/7/1
f 163/7/1 156/7/1 160/7/1
f 164/3/1 154/3/1 163/3/1
f 165/3/1 163/3/1 162/3/1
f 166/3/1 163/3/1 165/3/1
f 169/4/1 168/4/1 167/4/1
f 170/4/1 168/4/1 169/4/1
f 173/4/1 172/4/1 171/4/1
f 174/4/1 172/4/1 173/4/1
f 177/3/1 176/3/1 175/3/1
f 178/3/1 176/3/1 177/3/1
f 179/3/1 176/3/1 178/3/1
f 180/3/1 176/3/1 179/3/1
f 183/3/1 182/3/1 181/3/1
f 184/3/1 182/3/1 183/3/1
f 185/3/2 186/3/2 187/3/2
f 187/3/2 186/3/2 188/3/2
f 189/3/2 190/3/2 191/3/2
f 191/3/2 190/3/2 192/3/2
f 192/3/2 190/3/2 193/3/2
f 193/3/2 190/3/2 194/3/2
f 195/3/2 196/3/2 198/3/2
f 198/3/2 196/3/2 199/3/2
f 195/3/2 198/3/2 200/3/2
f 198/7/2 199/7/2 201/7/2
f 200/3/2 198/3/2 201/3/2
f 199/3/2 196/3/2 202/3/2
f 201/7/2 199/7/2 202/7/2
f 196/4/2 197/4/2 203/4/2
f 202/3/2 196/3/2 203/3/2
f 203/4/2 197/4/2 204/4/2
f 201/3/2 202/3/2 205/3/2
f 205/3/2 202/3/2 206/3/2
f 207/4/2 208/4/2 209/4/2
f 209/4/2 208/4/2 210/4/2
f 211/3/2 212/3/2 213/3/2
f 213/3/2 212/3/2 214/3/2
f 215/3/2 216/3/2 217/3/2
f 217/3/2 216/3/2 218/3/2
f 218/3/2 216/3/2 219/3/2
f 219/3/2 216/3/2 220/3/2
f 221/4/2 222/4/2 225/4/2
f 225/4/2 222/4/2 226/4/2
f 223/4/2 224/4/2 227/4/2
f 227/4/2 224/4/2 228/4/2
f 229/4/2 230/4/2 231/4/2
f 231/4/2 230/4/2 232/4/2
f 229/4/2 231/4/2 235/4/2
f 233/2/2 234/2/2 236/2/2
f 236/2/2 234/2/2 237/2/2
f 232/4/2 230/4/2 238/4/2
f 229/4/2 235/4/2 239/4/2
f 237/2/2 238/2/2 239/2/2
f 236/2/2 237/2/2 239/2/2
f 235/2/2 236/2/2 239/2/2
f 239/2/2 238/2/2 240/2/2
f 240/2/2 238/2/2 241/2/2
f 238/4/2 230/4/2 242/4/2
f 241/2/2 238/2/2 242/2/2
f 240/2/2 241/2/2 243/2/2
f 239/4/2 240/4/2 243/4/2
f 241/4/2 242/4/2 244/4/2
f 243/2/2 241/2/2 244/2/2
f 229/4/2 239/4/2 245/4/2
f 239/4/2 243/4/2 245/4/2
f 243/4/2 244/4/2 245/4/2
f 242/4/2 230/4/2 246/4/2
f 245/4/2 244/4/2 246/4/2
f 244/4/2 242/4/2 246/4/2
f 247/3/2 248/3/2 251/3/2
f 251/3/2 248/3/2 252/3/2
f 249/3/2 250/3/2 253/3/2
f 253/3/2 250/3/2 254/3/2
f 255/3/2 256/3/2 257/3/2
f 257/3/2 256/3/2 258/3/2
f 259/3/2 260/3/2 261/3/2
f 261/3/2 260/3/2 262/3/2
f 262/3/2 260/3/2 263/3/2
f 263/3/2 260/3/2 264/3/2
f 264/3/2 260/3/2 265/3/2
f 265/3/2 260/3/2 266/3/2
f 262/3/2 263/3/2 267/3/2
f 267/3/2 263/3/2 268/3/2
f 268/3/2 263/3/2 269/3/2
f 263/2/2 264/2/2 270/2/2
f 269/3/2 263/3/2 270/3/2
f 264/3/2 265/3/2 271/3/2
f 270/2/2 264/2/2 271/2/2
f 271/3/2 265/3/2 272/3/2
f 272/3/2 265/3/2 273/3/2
f 273/3/2 265/3/2 274/3/2
f 268/3/2 269/3/2 275/3/2
f 275/3/2 269/3/2 276/3/2
f 272/3/2 273/3/2 277/3/2
f 277/3/2 273/3/2 278/3/2
f 276/3/2 269/3/2 279/3/2
f 279/3/2 269/3/2 280/3/2
f 272/3/2 277/3/2 281/3/2
f 281/3/2 277/3/2 282/3/2
f 280/3/2 269/3/2 283/3/2
f 283/3/2 269/3/2 284/3/2
f 269/2/2 270/2/2 285/2/2
f 284/3/2 269/3/2 285/3/2
f 270/2/2 271/2/2 285/2/2
f 271/2/2 272/2/2 285/2/2
f 285/2/2 272/2/2 286/2/2
f 286/2/2 272/2/2 287/2/2
f 272/3/2 281/3/2 288/3/2
f 287/2/2 272/2/2 288/2/2
f 288/3/2 281/3/2 289/3/2
f 289/3/2 281/3/2 290/3/2
f 284/3/2 285/3/2 291/3/2
f 285/3/2 286/3/2 291/3/2
f 291/3/2 286/3/2 292/3/2
f 286/2/2 287/2/2 293/2/2
f 292/3/2 286/3/2 293/3/2
f 288/3/2 289/3/2 294/3/2
f 293/2/2 287/2/2 294/2/2
f 287/3/2 288/3/2 294/3/2
f 294/3/2 289/3/2 295/3/2
f 295/3/2 289/3/2 296/3/2
f 292/3/2 293/3/2 297/3/2
f 294/3/2 295/3/2 297/3/2
f 293/3/2 294/3/2 297/3/2
f 297/3/2 295/3/2 298/3/2
f 298/3/2 295/3/2 299/3/2
f 299/3/2 295/3/2 300/3/2
f 298/3/2 299/3/2 301/3/2
f 301/3/2 299/3/2 302/3/2
f 303/3/2 304/3/2 305/3/2
f 305/3/2 304/3/2 306/3/2
f 306/3/2 304/3/2 307/3/2
f 307/3/2 304/3/2 308/3/2
f 308/3/2 304/3/2 309/3/2
f 309/3/2 304/3/2 310/3/2
f 306/3/2 307/3/2 311/3/2
f 311/3/2 307/3/2 312/3/2
f 308/3/2 309/3/2 315/3/2
f 315/3/2 309/3/2 316/3/2
f 312/3/2 313/3/2 317/3/2
f 317/3/2 313/3/2 318/3/2
f 314/3/2 315/3/2 321/3/2
f 321/3/2 315/3/2 322/3/2
f 318/3/2 319/3/2 323/3/2
f 323/3/2 319/3/2 324/3/2
f 320/3/2 321/3/2 327/3/2
f 327/3/2 321/3/2 328/3/2
f 324/3/2 325/3/2 329/3/2
f 329/3/2 325/3/2 330/3/2
f 326/3/2 327/3/2 333/3/2
f 333/3/2 327/3/2 334/3/2
f 330/3/2 331/3/2 335/3/2
f 335/3/2 331/3/2 336/3/2
f 332/3/2 333/3/2 339/3/2
f 339/3/2 333/3/2 340/3/2
f 336/3/2 337/3/2 341/3/2
f 341/3/2 337/3/2 342/3/2
f 338/3/2 339/3/2 345/3/2
f 345/3/2 339/3/2 346/3/2
f 342/3/2 343/3/2 347/3/2
f 347/3/2 343/3/2 348/3/2
f 344/3/2 345/3/2 351/3/2
f 351/3/2 345/3/2 352/3/2
f 348/3/2 349/3/2 353/3/2
f 353/3/2 349/3/2 354/3/2
f 350/3/2 351/3/2 355/3/2
f 355/3/2 351/3/2 356/3/2
f 354/3/2 355/3/2 357/3/2
f 357/3/2 355/3/2 358/3/2
f 361/3/3 360/3/3 359/3/3
f 362/3/3 360/3/3 361/3/3
f 365/5/3 364/5/3 363/5/3
f 366/5/3 364/5/3 365/5/3
f 369/3/3 368/3/3 367/3/3
f 370/3/3 368/3/3 369/3/3
f 373/3/3 372/3/3 371/3/3
f 374/3/3 372/3/3 373/3/3
f 379/3/3 378/3/3 377/3/3
f 380/3/3 378/3/3 379/3/3
f 383/3/3 382/3/3 381/3/3
f 384/3/3 382/3/3 383/3/3
f 385/3/3 376/3/3 375/3/3
f 386/3/3 376/3/3 385/3/3
f 391/3/3 390/3/3 389/3/3
f 392/3/3 390/3/3 391/3/3
f 395/3/3 394/3/3 393/3/3
f 396/3/3 394/3/3 395/3/3
f 399/3/3 398/3/3 397/3/3
f 400/3/3 398/3/3 399/3/3
f 403/3/3 402/3/3 401/3/3
f 404/3/3 402/3/3 403/3/3
f 405/3/3 388/3/3 387/3/3
f 406/3/3 388/3/3 405/3/3
f 411/4/3 410/4/3 409/4/3
f 412/4/3 410/4/3 411/4/3
f 413/6/3 412/6/3 411/6/3
f 414/6/3 412/6/3 413/6/3
f 415/6/3 412/6/3 414/6/3
f 417/2/3 415/2/3 414/2/3
f 418/6/3 412/6/3 415/6/3
f 418/2/3 415/2/3 417/2/3
f 419/6/3 412/6/3 418/6/3
f 420/2/3 417/2/3 416/2/3
f 420/2/3 418/2/3 417/2/3
f 420/2/3 419/2/3 418/2/3
f 421/2/3 419/2/3 420/2/3
f 422/2/3 419/2/3 421/2/3
f 423/6/3 412/6/3 419/6/3
f 423/2/3 419/2/3 422/2/3
f 424/6/3 413/6/3 411/6/3
f 425/2/3 422/2/3 421/2/3
f 426/6/3 423/6/3 422/6/3
f 426/2/3 422/2/3 425/2/3
f 427/4/3 411/4/3 409/4/3
f 427/6/3 424/6/3 411/6/3
f 427/6/3 426/6/3 425/6/3
f 427/6/3 425/6/3 424/6/3
f 428/6/3 426/6/3 427/6/3
f 429/4/3 427/4/3 409/4/3
f 429/4/3 428/4/3 427/4/3
f 430/4/3 428/4/3 429/4/3
f 431/6/3 426/6/3 428/6/3
f 431/4/3 428/4/3 430/4/3
f 432/6/3 426/6/3 431/6/3
f 433/4/3 431/4/3 430/4/3
f 433/4/3 432/4/3 431/4/3
f 434/4/3 432/4/3 433/4/3
f 435/4/3 432/4/3 434/4/3
f 437/4/3 432/4/3 435/4/3
f 439/4/3 437/4/3 436/4/3
f 440/4/3 432/4/3 437/4/3
f 440/4/3 439/4/3 438/4/3
f 440/4/3 437/4/3 439/4/3
f 441/6/3 426/6/3 432/6/3
f 441/4/3 432/4/3 440/4/3
f 442/4/3 440/4/3 438/4/3
f 443/6/3 441/6/3 440/6/3
f 443/4/3 440/4/3 442/4/3
f 444/6/3 443/6/3 442/6/3
f 445/6/3 443/6/3 444/6/3
f 446/6/3 423/6/3 426/6/3
f 446/6/3 443/6/3 445/6/3
f 446/6/3 426/6/3 441/6/3
f 446/6/3 441/6/3 443/6/3
f 448/2/3 446/2/3 445/2/3
f 449/6/3 423/6/3 446/6/3
f 449/2/3 446/2/3 448/2/3
f 450/6/3 412/6/3 423/6/3
f 450/6/3 423/6/3 449/6/3
f 451/2/3 448/2/3 447/2/3
f 451/2/3 449/2/3 448/2/3
f 451/2/3 450/2/3 449/2/3
f 452/2/3 450/2/3 451/2/3
f 453/2/3 450/2/3 452/2/3
f 454/6/3 412/6/3 450/6/3
f 454/2/3 450/2/3 453/2/3
f 455/6/3 444/6/3 442/6/3
f 456/2/3 453/2/3 452/2/3
f 457/6/3 454/6/3 453/6/3
f 457/2/3 453/2/3 456/2/3
f 458/6/3 455/6/3 442/6/3
f 458/4/3 442/4/3 438/4/3
f 458/6/3 457/6/3 456/6/3
f 458/6/3 456/6/3 455/6/3
f 459/6/3 454/6/3 457/6/3
f 459/6/3 457/6/3 458/6/3
f 459/4/3 410/4/3 412/4/3
f 459/6/3 412/6/3 454/6/3
f 460/4/3 458/4/3 438/4/3
f 460/4/3 459/4/3 458/4/3
f 461/4/3 410/4/3 459/4/3
f 461/4/3 459/4/3 460/4/3
f 462/3/3 408/3/3 407/3/3
f 463/3/3 408/3/3 462/3/3
f 468/4/3 467/4/3 466/4/3
f 469/4/3 467/4/3 468/4/3
f 472/1/3 471/1/3 470/1/3
f 474/1/3 472/1/3 470/1/3
f 474/1/3 473/1/3 472/1/3
f 475/1/3 473/1/3 474/1/3
f 476/1/3 474/1/3 470/1/3
f 477/1/3 474/1/3 476/1/3
f 480/4/3 479/4/3 478/4/3
f 481/4/3 479/4/3 480/4/3
f 482/3/3 465/3/3 464/3/3
f 483/3/3 465/3/3 482/3/3
f 486/3/3 485/3/3 484/3/3
f 487/3/3 485/3/3 486/3/3
f 492/3/3 491/3/3 490/3/3
f 494/3/3 492/3/3 490/3/3
f 494/3/3 493/3/3 492/3/3
f 495/3/3 493/3/3 494/3/3
f 498/3/3 497/3/3 496/3/3
f 499/3/3 497/3/3 498/3/3
f 500/3/3 498/3/3 496/3/3
f 501/3/3 498/3/3 500/3/3
f 502/3/3 489/3/3 488/3/3
f 503/3/3 489/3/3 502/3/3
f 506/3/3 505/3/3 504/3/3
f 507/3/3 505/3/3 506/3/3
f 510/3/3 509/3/3 508/3/3
f 511/3/3 509/3/3 510/3/3
f 514/3/3 513/3/3 512/3/3
f 515/3/3 513/3/3 514/3/3
f 518/3/3 517/3/3 516/3/3
f 519/3/3 517/3/3 518/3/3
f 522/3/3 521/3/3 520/3/3
f 523/3/3 521/3/3 522/3/3
f 526/3/3 525/3/3 524/3/3
f 527/3/3 525/3/3 526/3/3
f 530/3/3 529/3/3 528/3/3
f 531/3/3 529/3/3 530/3/3
f 534/3/3 533/3/3 532/3/3
f 535/3/3 533/3/3 534/3/3
f 538/3/3 537/3/3 536/3/3
f 539/3/3 537/3/3 538/3/3
f 542/3/3 541/3/3 540/3/3
f 543/3/3 541/3/3 542/3/3
f 546/3/3 545/3/3 544/3/3
f 547/3/3 545/3/3 546/3/3
f 550/3/3 549/3/3 548/3/3
f 551/3/3 549/3/3 550/3/3
f 554/3/3 553/3/3 552/3/3
f 555/3/3 553/3/3 554/3/3
f 558/3/3 557/3/3 556/3/3
f 559/3/3 557/3/3 558/3/3
f 562/3/3 561/3/3 560/3/3
f 563/3/3 561/3/3 562/3/3
f 566/3/3 565/3/3 564/3/3
f 567/3/3 565/3/3 566/3/3
f 570/3/3 569/3/3 568/3/3
f 571/3/3 569/3/3 570/3/3
f 574/3/3 573/3/3 572/3/3
f 575/3/3 573/3/3 574/3/3
f 578/3/3 577/3/3 576/3/3
f 579/3/3 577/3/3 578/3/3
f 582/3/3 581/3/3 580/3/3
f 583/3/3 581/3/3 582/3/3
f 586/3/3 585/3/3 584/3/3
f 587/3/3 585/3/3 586/3/3
f 588/5/4 589/5/4 590/5/4
f 590/5/4 589/5/4 591/5/4
f 592/3/4 593/3/4 594/3/4
f 594/3/4 593/3/4 595/3/4
f 596/3/4 597/3/4 598/3/4
f 598/3/4 597/3/4 599/3/4
f 600/3/4 601/3/4 602/3/4
f 602/3/4 601/3/4 603/3/4
f 604/3/4 605/3/4 606/3/4
f 606/3/4 605/3/4 607/3/4
f 608/3/4 609/3/4 610/3/4
f 610/3/4 609/3/4 611/3/4
f 612/3/4 613/3/4 614/3/4
f 614/3/4 613/3/4 615/3/4
f 616/3/4 617/3/4 618/3/4
f 618/3/4 617/3/4 619/3/4
f 620/3/4 621/3/4 622/3/4
f 622/3/4 621/3/4 623/3/4
f 624/3/4 625/3/4 626/3/4
f 626/3/4 625/3/4 627/3/4
f 628/3/4 629/3/4 630/3/4
f 630/3/4 629/3/4 631/3/4
f 632/3/4 633/3/4 634/3/4
f 634/3/4 633/3/4 635/3/4
f 636/3/4 637/3/4 638/3/4
f 638/3/4 637/3/4 639/3/4
f 640/3/4 641/3/4 642/3/4
f 642/3/4 641/3/4 643/3/4
f 644/3/4 645/3/4 646/3/4
f 646/3/4 645/3/4 647/3/4
f 648/3/4 649/3/4 650/3/4
f 650/3/4 649/3/4 651/3/4
f 652/3/4 653/3/4 654/3/4
f 654/3/4 653/3/4 655/3/4
f 656/3/4 657/3/4 658/3/4
f 658/3/4 657/3/4 659/3/4
f 660/3/4 661/3/4 662/3/4
f 662/3/4 661/3/4 663/3/4
f 664/3/4 665/3/4 666/3/4
f 666/3/4 665/3/4 667/3/4
f 668/3/4 669/3/4 670/3/4
f 670/3/4 669/3/4 671/3/4
f 672/3/4 673/3/4 674/3/4
f 674/3/4 673/3/4 675/3/4
f 676/3/4 677/3/4 678/3/4
f 678/3/4 677/3/4 679/3/4
f 682/3/4 683/3/4 684/3/4
f 682/3/4 684/3/4 686/3/4
f 684/3/4 685/3/4 686/3/4
f 686/3/4 685/3/4 687/3/4
f 688/3/4 689/3/4 690/3/4
f 690/3/4 689/3/4 691/3/4
f 688/3/4 690/3/4 692/3/4
f 692/3/4 690/3/4 693/3/4
f 680/3/4 681/3/4 694/3/4
f 694/3/4 681/3/4 695/3/4
f 696/3/4 697/3/4 698/3/4
f 698/3/4 697/3/4 699/3/4
f 702/4/4 703/4/4 704/4/4
f 704/4/4 703/4/4 705/4/4
f 706/4/4 707/4/4 708/4/4
f 708/4/4 707/4/4 709/4/4
f 700/3/4 701/3/4 710/3/4
f 710/3/4 701/3/4 711/3/4
f 714/4/4 715/4/4 716/4/4
f 716/4/4 715/4/4 717/4/4
f 712/3/4 713/3/4 718/3/4
f 718/3/4 713/3/4 719/3/4
f 720/3/4 721/3/4 722/3/4
f 722/3/4 721/3/4 723/3/4
f 724/3/4 725/3/4 726/3/4
f 726/3/4 725/3/4 727/3/4
f 728/3/4 729/3/4 730/3/4
f 730/3/4 729/3/4 731/3/4
f 735/3/5 733/3/5 732/3/5
f 736/3/5 733/3/5 735/3/5
f 740/4/5 735/4/5 734/4/5
f 740/4/5 736/4/5 735/4/5
f 741/4/5 736/4/5 740/4/5
f 742/4/5 738/4/5 737/4/5
f 743/4/5 738/4/5 742/4/5
f 745/4/5 740/4/5 739/4/5
f 746/1/5 741/1/5 740/1/5
f 746/4/5 740/4/5 745/4/5
f 746/1/5 742/1/5 741/1/5
f 746/1/5 743/1/5 742/1/5
f 747/4/5 744/4/5 743/4/5
f 747/1/5 743/1/5 746/1/5
f 748/4/5 744/4/5 747/4/5
f 749/4/5 747/4/5 746/4/5
f 750/4/5 747/4/5 749/4/5
f 753/5/5 752/5/5 751/5/5
f 754/5/5 752/5/5 753/5/5
f 759/3/5 756/3/5 755/3/5
f 760/3/5 756/3/5 759/3/5
f 761/3/5 758/3/5 757/3/5
f 762/3/5 758/3/5 761/3/5
f 765/3/5 764/3/5 763/3/5
f 766/3/5 764/3/5 765/3/5
f 769/3/5 768/3/5 767/3/5
f 770/3/5 768/3/5 769/3/5
f 775/4/5 772/4/5 771/4/5
f 776/4/5 772/4/5 775/4/5
f 777/4/5 774/4/5 773/4/5
f 778/4/5 774/4/5 777/4/5
f 781/4/5 780/4/5 779/4/5
f 782/4/5 780/4/5 781/4/5
f 785/3/5 784/3/5 783/3/5
f 786/3/5 784/3/5 785/3/5
f 787/3/5 785/3/5 783/3/5
f 788/3/5 785/3/5 787/3/5
f 789/3/5 784/3/5 786/3/5
f 790/3/5 784/3/5 789/3/5
f 791/3/5 787/3/5 783/3/5
f 794/3/5 784/3/5 790/3/5
f 795/3/5 792/3/5 791/3/5
f 796/3/5 794/3/5 793/3/5
f 797/3/5 795/3/5 791/3/5
f 797/3/5 796/3/5 795/3/5
f 797/3/5 791/3/5 783/3/5
f 798/3/5 794/3/5 796/3/5
f 798/3/5 796/3/5 797/3/5
f 798/3/5 784/3/5 794/3/5
f 803/3/5 800/3/5 799/3/5
f 804/3/5 800/3/5 803/3/5
f 805/3/5 802/3/5 801/3/5
f 806/3/5 802/3/5 805/3/5
f 811/3/5 808/3/5 807/3/5
f 812/3/5 808/3/5 811/3/5
f 813/3/5 810/3/5 809/3/5
f 814/3/5 810/3/5 813/3/5
f 819/3/5 816/3/5 815/3/5
f 820/3/5 816/3/5 819/3/5
f 821/3/5 818/3/5 817/3/5
f 822/3/5 818/3/5 821/3/5
f 827/3/5 824/3/5 823/3/5
f 828/3/5 824/3/5 827/3/5
f 829/3/5 826/3/5 825/3/5
f 830/3/5 826/3/5 829/3/5
f 835/3/5 832/3/5 831/3/5
f 836/3/5 832/3/5 835/3/5
f 837/3/5 834/3/5 833/3/5
f 838/3/5 834/3/5 837/3/5
f 843/3/5 840/3/5 839/3/5
f 844/3/5 840/3/5 843/3/5
f 845/3/5 842/3/5 841/3/5
f 846/3/5 842/3/5 845/3/5
f 851/3/5 848/3/5 847/3/5
f 852/3/5 848/3/5 851/3/5
f 853/3/5 850/3/5 849/3/5
f 854/3/5 850/3/5 853/3/5
f 859/3/5 856/3/5 855/3/5
f 860/3/5 856/3/5 859/3/5
f 861/3/5 858/3/5 857/3/5
f 862/3/5 858/3/5 861/3/5
f 867/3/5 864/3/5 863/3/5
f 868/3/5 864/3/5 867/3/5
f 869/3/5 866/3/5 865/3/5
f 870/3/5 866/3/5 869/3/5
f 875/3/5 872/3/5 871/3/5
f 876/3/5 872/3/5 875/3/5
f 877/3/5 874/3/5 873/3/5
f 878/3/5 874/3/5 877/3/5
f 883/3/5 880/3/5 879/3/5
f 884/3/5 880/3/5 883/3/5
f 885/3/5 882/3/5 881/3/5
f 886/3/5 882/3/5 885/3/5
f 891/3/5 888/3/5 887/3/5
f 892/3/5 888/3/5 891/3/5
f 893/3/5 890/3/5 889/3/5
f 894/3/5 890/3/5 893/3/5
f 899/3/5 896/3/5 895/3/5
f 900/3/5 896/3/5 899/3/5
f 901/3/5 898/3/5 897/3/5
f 902/3/5 898/3/5 901/3/5
f 907/3/5 904/3/5 903/3/5
f 908/3/5 904/3/5 907/3/5
f 909/3/5 906/3/5 905/3/5
f 910/3/5 906/3/5 909/3/5
f 915/3/5 912/3/5 911/3/5
f 916/3/5 912/3/5 915/3/5
f 917/3/5 914/3/5 913/3/5
f 918/3/5 914/3/5 917/3/5
f 919/5/6 920/5/6 921/5/6
f 921/5/6 920/5/6 922/5/6
f 923/3/6 924/3/6 927/3/6
f 927/3/6 924/3/6 928/3/6
f 928/3/6 924/3/6 929/3/6
f 929/3/6 924/3/6 930/3/6
f 925/3/6 926/3/6 931/3/6
f 931/3/6 926/3/6 932/3/6
f 932/3/6 926/3/6 933/3/6
f 933/3/6 926/3/6 934/3/6
f 928/3/6 929/3/6 935/3/6
f 935/3/6 929/3/6 936/3/6
f 932/3/6 933/3/6 937/3/6
f 937/3/6 933/3/6 938/3/6
f 939/3/6 940/3/6 942/3/6
f 941/3/6 942/3/6 943/3/6
f 942/3/6 940/3/6 944/3/6
f 943/3/6 942/3/6 944/3/6
f 944/3/6 940/3/6 945/3/6
f 945/3/6 940/3/6 946/3/6
f 947/3/6 948/3/6 955/3/6
f 955/3/6 948/3/6 956/3/6
f 949/3/6 950/3/6 957/3/6
f 957/3/6 950/3/6 958/3/6
f 951/3/6 952/3/6 959/3/6
f 959/3/6 952/3/6 960/3/6
f 953/3/6 954/3/6 961/3/6
f 961/3/6 954/3/6 962/3/6
f 963/3/6 964/3/6 967/3/6
f 965/3/6 966/3/6 969/3/6
f 969/3/6 966/3/6 970/3/6
f 967/3/6 968/3/6 971/3/6
f 963/3/6 967/3/6 971/3/6
f 971/3/6 968/3/6 972/3/6
f 963/3/6 971/3/6 975/3/6
f 975/3/6 971/3/6 976/3/6
f 973/3/6 974/3/6 977/3/6
f 977/3/6 974/3/6 978/3/6
f 979/3/6 980/3/6 981/3/6
f 981/3/6 980/3/6 982/3/6
f 983/3/6 984/3/6 985/3/6
f 985/3/6 984/3/6 986/3/6
f 987/3/6 988/3/6 989/3/6
f 989/3/6 988/3/6 990/3/6
f 991/3/6 992/3/6 993/3/6
f 993/3/6 992/3/6 994/3/6
f 995/3/6 996/3/6 997/3/6
f 997/3/6 996/3/6 998/3/6
f 999/3/6 1000/3/6 1001/3/6
f 1001/3/6 1000/3/6 1002/3/6
f 1003/3/6 1004/3/6 1007/3/6
f 1007/3/6 1004/3/6 1008/3/6
f 1005/3/6 1006/3/6 1009/3/6
f 1009/3/6 1006/3/6 1010/3/6
f 1011/3/6 1012/3/6 1013/3/6
f 1013/3/6 1012/3/6 1014/3/6
f 1015/3/6 1016/3/6 1017/3/6
f 1017/3/6 1016/3/6 1018/3/6
f 1019/3/6 1020/3/6 1021/3/6
f 1021/3/6 1020/3/6 1022/3/6
f 1023/3/6 1024/3/6 1025/3/6
f 1025/3/6 1024/3/6 1026/3/6
f 1027/3/6 1028/3/6 1029/3/6
f 1029/3/6 1028/3/6 1030/3/6
f 1031/3/6 1032/3/6 1033/3/6
f 1033/3/6 1032/3/6 1034/3/6
f 1035/3/6 1036/3/6 1037/3/6
f 1037/3/6 1036/3/6 1038/3/6
f 1039/3/6 1040/3/6 1041/3/6
f 1041/3/6 1040/3/6 1042/3/6
f 1043/3/6 1044/3/6 1045/3/6
f 1045/3/6 1044/3/6 1046/3/6
f 1047/3/6 1048/3/6 1049/3/6
f 1049/3/6 1048/3/6 1050/3/6
f 1051/3/6 1052/3/6 1053/3/6
f 1053/3/6 1052/3/6 1054/3/6
f 1055/3/6 1056/3/6 1057/3/6
f 1057/3/6 1056/3/6 1058/3/6
f 1059/3/6 1060/3/6 1061/3/6
f 1061/3/6 1060/3/6 1062/3/6
f 1063/3/6 1064/3/6 1065/3/6
f 1065/3/6 1064/3/6 1066/3/6
f 1067/3/6 1068/3/6 1069/3/6
f 1069/3/6 1068/3/6 1070/3/6
f 1071/3/6 1072/3/6 1073/3/6
f 1073/3/6 1072/3/6 1074/3/6
f 1075/3/6 1076/3/6 1077/3/6
f 1077/3/6 1076/3/6 1078/3/6
f 1079/3/6 1080/3/6 1081/3/6
f 1081/3/6 1080/3/6 1082/3/6
